Hierarchical Accumulation Modelling with Stan and R • hamstr
…
By default, the number of sections at the highest resolution (K_fine) is set so that the sections have approximately unit thickness, i.e. if the depths are in cm, the sections are 1 cm thick. This applies up to a maximum of 900 sections above which the default remains 900 sections and a coarser resolution is used. This can be changed from the default via the parameter K_fine.

K_factor is set so that the total number of modelled sections is approximately 1.2 times K_fine, or

K_factor^K_factor ≈ K_tot ≈ 1.2 * K_fine

For a given shape parameter acc_shape, increasing the number of modelled hierarchical levels increases the total variance in the accumulation rates at the highest / finest resolution level. From hamstr version 0.5.0 and onwards, the total variance is controlled by modifying the shape parameter according to the number of hierarchical levels.

Getting the fitted age models

The fitted age models can be obtained with the predict and summary methods. iter is the iteration of the sampler, or “realisation” of the age model.

predict(hamstr_fit_1)
#> # A tibble: 396,000 × 3
#>     iter depth   age
#>    <int> <dbl> <dbl>
#>  1     1   1.5 4525.
#>  2     1   2.5 4537.
#>  3     1   3.5 4548.
#>  4     1   4.5 4556.
#>  5     1   5.5 4580.
#>  6     1   6.5 4607.
#>  7     1   7.5 4628.
#>  8     1   8.5 4648.
#>  9     1   9.5 4673.
#> 10     1  10.5 4697.
#> # ℹ 395,990 more rows

summary returns the age model summarised over the realisations.

summary(hamstr_fit_1)
#> # A tibble: 99 × 15
#>    depth   idx par         mean se_mean    sd `2.5%` `15.9%` `25%` `50%` `75%`
#>    <dbl> <dbl> <chr>      <dbl>   <dbl> <dbl>  <dbl>   <dbl> <dbl> <dbl> <dbl>
#>  1   1.5     1 c_ages[1]  4508.   1.67   65.7  4362.   4445. 4468. 4514. 4555.
#>  2   2.5     2 c_ages[2]  4520.   1.54   61.3  4388.   4460. 4482. 4523. 4563.
#>  3   3.5     3 c_ages[3]  4531.   1.42   57.8  4407.   4475. 4496. 4534. 4572.
#>  4   4.5     4 c_ages[4]  4543.   1.32   55.0  4425.   4489. 4509. 4545. 4582.
#>  5   5.5     5 c_ages[5]  4554.   1.21   52.8  4440.   4503. 4521. 4557. 4592.
#>  6   6.5     6 c_ages[6]  4566.   1.11   50.6  4459.   4516. 4534. 4568. 4602.
#>  7   7.5     7 c_ages[7]  4577.   1.02   48.8  4475.   4530. 4545. 4579. 4611.
#>  8   8.5     8 c_ages[8]  4589.   0.943  47.5  4489.   4542. 4558. 4591. 4622.
#>  9   9.5     9 c_ages[9]  4601.   0.881  46.1  4506.   4555. 4572. 4604. 4634.
#> 10  10.5    10 c_ages[10] 4616.   0.824  44.2  4527.   4573. 4587. 4618. 4647.
#> # ℹ 89 more rows
#> # ℹ 4 more variables: `84.1%` <dbl>, `97.5%` <dbl>, n_eff <dbl>, Rhat <dbl>

The hierarchical structure of the sections makes it difficult to specify the exact depth resolution that you want for your resulting age-depth model. The predict method takes an additional argument depth to interpolate to a specific set of depths. The function returns NA for depths that are outside the modelled depths.

age.mods.interp <- predict(hamstr_fit_1, depth = seq(0, 100, by = 1))

These interpolated age models can summarised with the same function as the original fitted objects, but the n_eff and Rhat information is lost.

summary(age.mods.interp)
#> # A tibble: 101 × 10
#>    depth  mean    sd `2.5%` `15.9%` `25%` `50%` `75%` `84.1%` `97.5%`
#>    <dbl> <dbl> <dbl>  <dbl>   <dbl> <dbl> <dbl> <dbl>   <dbl>   <dbl>
#>  1     0  NaN   NA      NA      NA    NA    NA    NA      NA      NA 
#>  2     1  NaN   NA      NA      NA    NA    NA    NA      NA      NA 
#>  3     2 4514.  63.4  4376.   4452. 4475. 4518. 4558.   4575.   4623.
#>  4     3 4525.  59.4  4398.   4467. 4489. 4529. 4567.   4583.   4630.
#>  5     4 4537.  56.3  4415.   4482. 4502. 4540. 4577.   4592.   4636.
#>  6     5 4549.  53.8  4432.   4497. 4516. 4552. 4587.   4601.   4643.
#>  7     6 4560.  51.6  4449.   4510. 4528. 4563. 4597.   4610.   4652.
#>  8     7 4571.  49.6  4467.   4523. 4539. 4574. 4606.   4620.   4661.
#>  9     8 4583.  48.0  4482.   4536. 4552. 4586. 4617.   4630.   4670.
#> 10     9 4595.  46.7  4498.   4548. 4565. 4597. 4628.   4641.   4679.
#> # ℹ 91 more rows
…
summary(hamstr_fit_1, type = "acc_rates") 
#> Joining with `by = join_by(idx)`
#> # A tibble: 196 × 15
#>    depth c_depth_top c_depth_bottom acc_rate_unit   idx   tau  mean    sd `2.5%`
#>    <dbl>       <dbl>          <dbl> <chr>         <dbl> <dbl> <dbl> <dbl>  <dbl>
#>  1   1.5         1.5            2.5 depth_per_ti…     1     0 155.  150.    29.3
#>  2   2.5         2.5            3.5 depth_per_ti…     2     0 138.  117.    31.8
#>  3   3.5         3.5            4.5 depth_per_ti…     3     0 134.  112.    32.4
#>  4   4.5         4.5            5.5 depth_per_ti…     4     0 124.   89.2   35.3
#>  5   5.5         5.5            6.5 depth_per_ti…     5     0 121.   82.2   37.2
#>  6   6.5         6.5            7.5 depth_per_ti…     6     0 123.   87.8   36.1
#>  7   7.5         7.5            8.5 depth_per_ti…     7     0 127.   94.7   35.6
#>  8   8.5         8.5            9.5 depth_per_ti…     8     0  97.8  52.7   34.8
#>  9   9.5         9.5           10.5 depth_per_ti…     9     0  81.7  40.2   31.6
#> 10  10.5        10.5           11.5 depth_per_ti…    10     0  77.8  40.7   29.5
#> # ℹ 186 more rows
#> # ℹ 6 more variables: `15.9%` <dbl>, `25%` <dbl>, `50%` <dbl>, `75%` <dbl>,
#> #   `84.1%` <dbl>, `97.5%` <dbl>
…
