…
### Getting the fitted age models

The fitted age models can be obtained with the `predict` and `summary`
methods. *iter* is the iteration of the sampler, or “realisation” of the
age model.

``` r
predict(hamstr_fit_1)
#> # A tibble: 396,000 × 3
#>     iter depth   age
#>    <int> <dbl> <dbl>
#>  1     1   1.5 4445.
#>  2     1   2.5 4459.
#>  3     1   3.5 4468.
#>  4     1   4.5 4478.
#>  5     1   5.5 4497.
#>  6     1   6.5 4518.
#>  7     1   7.5 4545.
#>  8     1   8.5 4566.
#>  9     1   9.5 4587.
#> 10     1  10.5 4617.
#> # ℹ 395,990 more rows
```

`summary` returns the age model summarised over the realisations.

``` r
summary(hamstr_fit_1)
#> # A tibble: 99 × 15
#>    depth   idx par         mean se_mean    sd `2.5%` `15.9%` `25%` `50%` `75%`
#>    <dbl> <dbl> <chr>      <dbl>   <dbl> <dbl>  <dbl>   <dbl> <dbl> <dbl> <dbl>
#>  1   1.5     1 c_ages[1]  4461.   1.42   66.7  4316.   4395. 4420. 4467. 4508.
#>  2   2.5     2 c_ages[2]  4477.   1.30   62.5  4343.   4416. 4438. 4482. 4521.
#>  3   3.5     3 c_ages[3]  4494.   1.20   58.8  4372.   4436. 4457. 4497. 4535.
#>  4   4.5     4 c_ages[4]  4511.   1.10   55.7  4394.   4456. 4475. 4513. 4550.
#>  5   5.5     5 c_ages[5]  4527.   1.01   53.1  4416.   4476. 4493. 4530. 4565.
#>  6   6.5     6 c_ages[6]  4544.   0.940  50.8  4441.   4493. 4512. 4546. 4579.
#>  7   7.5     7 c_ages[7]  4560.   0.882  48.8  4462.   4512. 4529. 4562. 4594.
#>  8   8.5     8 c_ages[8]  4577.   0.836  47.4  4481.   4530. 4547. 4578. 4610.
#>  9   9.5     9 c_ages[9]  4595.   0.797  45.9  4501.   4549. 4565. 4596. 4626.
#> 10  10.5    10 c_ages[10] 4614.   0.755  44.3  4525.   4570. 4585. 4615. 4644.
#> # ℹ 89 more rows
#> # ℹ 4 more variables: `84.1%` <dbl>, `97.5%` <dbl>, n_eff <dbl>, Rhat <dbl>
```
…
``` r
age.mods.interp <- predict(hamstr_fit_1, depth = seq(0, 100, by = 1))
```

These interpolated age models can summarised with the same function as
the original fitted objects, but the n_eff and Rhat information is lost.

``` r
summary(age.mods.interp)
#> # A tibble: 101 × 10
#>    depth  mean    sd `2.5%` `15.9%` `25%` `50%` `75%` `84.1%` `97.5%`
#>    <dbl> <dbl> <dbl>  <dbl>   <dbl> <dbl> <dbl> <dbl>   <dbl>   <dbl>
#>  1     0  NaN   NA      NA      NA    NA    NA    NA      NA      NA 
#>  2     1  NaN   NA      NA      NA    NA    NA    NA      NA      NA 
#>  3     2 4469.  64.5  4328.   4406. 4429. 4474. 4514.   4532.   4580.
#>  4     3 4486.  60.5  4357.   4426. 4448. 4489. 4528.   4545.   4591.
#>  5     4 4502.  57.2  4383.   4447. 4466. 4505. 4542.   4558.   4605.
#>  6     5 4519.  54.3  4406.   4467. 4484. 4521. 4557.   4573.   4617.
#>  7     6 4536.  51.9  4429.   4485. 4503. 4538. 4572.   4587.   4630.
#>  8     7 4552.  49.7  4452.   4502. 4521. 4554. 4587.   4601.   4644.
#>  9     8 4569.  48.0  4471.   4521. 4538. 4570. 4602.   4616.   4659.
#> 10     9 4586.  46.6  4491.   4539. 4556. 4587. 4618.   4631.   4673.
#> # ℹ 91 more rows
```
…
``` r
plot(hamstr_fit_1, type = "acc_rates")
#> Joining with `by = join_by(idx)`
#> Joining with `by = join_by(depth)`
```

<img src="man/figures/README-plot_acc_rates-1.svg" width="100%" />

``` r
summary(hamstr_fit_1, type = "acc_rates") 
#> Joining with `by = join_by(idx)`
#> # A tibble: 196 × 15
#>    depth c_depth_top c_depth_bottom acc_rate_unit   idx   tau  mean    sd `2.5%`
#>    <dbl>       <dbl>          <dbl> <chr>         <dbl> <dbl> <dbl> <dbl>  <dbl>
#>  1   1.5         1.5            2.5 depth_per_ti…     1     0  75.4  39.6   27.6
#>  2   2.5         2.5            3.5 depth_per_ti…     2     0  72.3  34.3   29.0
#>  3   3.5         3.5            4.5 depth_per_ti…     3     0  71.4  32.7   29.5
#>  4   4.5         4.5            5.5 depth_per_ti…     4     0  69.3  28.2   31.2
#>  5   5.5         5.5            6.5 depth_per_ti…     5     0  69.0  27.1   32.5
#>  6   6.5         6.5            7.5 depth_per_ti…     6     0  69.3  27.4   32.8
#>  7   7.5         7.5            8.5 depth_per_ti…     7     0  69.8  28.7   32.0
#>  8   8.5         8.5            9.5 depth_per_ti…     8     0  62.2  20.6   32.0
#>  9   9.5         9.5           10.5 depth_per_ti…     9     0  56.0  16.9   30.8
#> 10  10.5        10.5           11.5 depth_per_ti…    10     0  53.8  16.8   29.5
#> # ℹ 186 more rows
#> # ℹ 6 more variables: `15.9%` <dbl>, `25%` <dbl>, `50%` <dbl>, `75%` <dbl>,
#> #   `84.1%` <dbl>, `97.5%` <dbl>
```
…
