Calibrate Radiocarbon Dates with rcarbon::calibrate — calibrate_14C_age • hamstr
…
# Return the PDFs
cal.lst <- calibrate_14C_age(dat, cal_curve = "marine13", return = "list")
#> Warning: timeRange value not supported with the selected curve(s); calibrating using timeRange=c(50000,0)
#> Warning: timeRange value not supported with the selected curve(s); calibrating using timeRange=c(50000,0)
cal.lst
#> $dat
#> # A tibble: 2 × 7
#>   DateID age.14C age.14C.se offset offset.se age.14C.cal age.14C.cal.se
#>    <dbl>   <dbl>      <dbl>  <dbl>     <dbl>       <dbl>          <dbl>
#> 1      1    2000        100      0         0        1564           119.
#> 2      2   20000        200      0         0       23599           255.
#> 
#> $cal.ages
#> # A tibble: 2,303 × 14
#>    DateID   CRA Error Details CalCurve ResOffsets ResErrors StartBP EndBP
#>     <dbl> <dbl> <dbl> <lgl>   <chr>         <dbl>     <dbl>   <dbl> <dbl>
#>  1      1  2000   100 NA      marine13          0         0   50000     0
#>  2      1  2000   100 NA      marine13          0         0   50000     0
#>  3      1  2000   100 NA      marine13          0         0   50000     0
#>  4      1  2000   100 NA      marine13          0         0   50000     0
#>  5      1  2000   100 NA      marine13          0         0   50000     0
#>  6      1  2000   100 NA      marine13          0         0   50000     0
#>  7      1  2000   100 NA      marine13          0         0   50000     0
#>  8      1  2000   100 NA      marine13          0         0   50000     0
#>  9      1  2000   100 NA      marine13          0         0   50000     0
#> 10      1  2000   100 NA      marine13          0         0   50000     0
#> # ℹ 2,293 more rows
#> # ℹ 5 more variables: Normalised <lgl>, F14C <lgl>, CalEPS <dbl>, calBP <dbl>,
#> #   PrDens <dbl>
…
